Lab1/Lab1_2/simulation/qsim/FS4.msim.vcd
$comment
	File created using the following command:
		vcd file FS4.msim.vcd -direction
$end
$date
	Wed Dec 11 16:34:28 2019
$end
$version
	ModelSim Version 10.1d
$end
$timescale
	1ps
$end
$scope module FS4_vlg_vec_tst $end
$var reg 4 ! A [3:0] $end
$var reg 4 " B [3:0] $end
$var wire 1 # D [4] $end
$var wire 1 $ D [3] $end
$var wire 1 % D [2] $end
$var wire 1 & D [1] $end
$var wire 1 ' D [0] $end
$var wire 1 ( sampler $end
$scope module i1 $end
$var wire 1 ) gnd $end
$var wire 1 * vcc $end
$var wire 1 + unknown $end
$var tri1 1 , devclrn $end
$var tri1 1 - devpor $end
$var tri1 1 . devoe $end
$var wire 1 / D[4]~output_o $end
$var wire 1 0 D[3]~output_o $end
$var wire 1 1 D[2]~output_o $end
$var wire 1 2 D[1]~output_o $end
$var wire 1 3 D[0]~output_o $end
$var wire 1 4 A[3]~input_o $end
$var wire 1 5 B[3]~input_o $end
$var wire 1 6 inst|inst|inst~combout $end
$var wire 1 7 B[2]~input_o $end
$var wire 1 8 A[2]~input_o $end
$var wire 1 9 B[0]~input_o $end
$var wire 1 : A[1]~input_o $end
$var wire 1 ; A[0]~input_o $end
$var wire 1 < B[1]~input_o $end
$var wire 1 = inst4|inst9|inst~combout $end
$var wire 1 > inst|inst8|inst~combout $end
$var wire 1 ? inst|inst9|inst~combout $end
$var wire 1 @ inst|inst2|inst~combout $end
$var wire 1 A inst1|inst2|inst~combout $end
$var wire 1 B inst4|inst2|inst~combout $end
$var wire 1 C inst5|inst|inst~combout $end
$upscope $end
$upscope $end
$enddefinitions $end
#0
$dumpvars
b1010 !
b11 "
1'
1&
1%
0$
0#
x(
0)
1*
x+
1,
1-
1.
0/
00
11
12
13
14
05
16
07
08
19
1:
0;
1<
1=
0>
0?
0@
1A
1B
1C
$end
#20000
b1110 !
b111 "
b101 "
b100 "
09
0<
17
18
0(
0=
0C
03
0'
0A
1@
01
10
0%
1$
#40000
b110 !
b100 !
b0 !
b0 "
b1 "
19
07
0:
08
04
1(
1=
06
1C
1>
13
1'
1A
11
1%
1?
1/
1#
#60000
b1001 "
b1000 !
b1010 !
1:
14
15
0(
0=
0B
0>
02
0&
0A
0@
01
00
0%
0$
0?
0/
0#
#80000
b1011 "
b1111 "
b111 "
1<
17
05
1(
1=
1>
16
1B
1A
1@
0>
12
11
10
1&
1%
1$
0A
0@
1?
01
00
1/
0%
0$
1#
0?
0/
0#
#100000
b1011 !
b1111 !
b111 !
b11 "
07
1;
18
04
0(
0=
06
1@
0C
0B
10
03
02
1$
0'
0&
1A
0@
11
00
1%
0$
#120000
b101 !
b100 !
b1100 !
b111 "
17
0;
0:
14
1(
1=
16
0A
1C
01
13
0%
1'
1A
11
1%
#140000
b110 "
b100 "
b1100 "
b1110 !
b110 !
1:
04
09
0<
15
0(
0=
1B
1?
0C
12
1/
03
1&
1#
0'
0A
1@
01
10
0%
1$
#160000
b1000 "
b1001 "
b1110 !
14
19
07
1(
06
0?
1C
0B
1A
0/
13
02
11
0#
1'
0&
1%
0@
00
0$
#180000
b1010 !
b1011 !
b1 "
b0 "
09
05
1;
08
0(
16
1B
0A
12
01
1&
0%
1@
10
1$
#200000
b10 "
b1001 !
b11 "
0:
19
1<
1(
1=
0C
03
0'
1A
0@
11
00
1%
0$
#220000
b1 !
b101 !
b100 !
b1011 "
15
0;
18
04
0(
1?
1C
0B
0A
1@
1/
13
02
01
10
1#
1'
0&
0%
1$
#240000
b1111 "
b110 !
b10 !
b11 !
b111 "
1;
1:
08
17
05
1(
0=
06
0C
0@
0?
1>
03
00
0/
0'
0$
0#
1A
1@
11
10
1%
1$
1?
1/
1#
#260000
b11 "
b111 !
b1011 "
18
07
15
0(
0>
16
0@
00
0$
1@
10
1$
#280000
b101 !
b1111 "
b1 !
b111 "
17
05
0:
08
1(
06
1=
0@
0?
1B
1>
00
0/
12
0$
0#
1&
1@
0A
10
01
1$
0%
1?
1/
1#
#300000
b110 "
b1001 !
b1011 !
b1110 "
1:
14
09
15
0(
0=
0B
1C
02
13
0&
1'
1A
11
1%
#320000
b1010 "
b1111 !
b1011 "
b111 !
b101 !
b11 "
0:
18
04
19
07
05
1(
1=
0>
1B
0@
0C
12
00
03
1&
0$
0'
0A
0?
01
0/
0%
0#
#340000
b1 "
b100 !
b110 !
0;
1:
0<
0(
0=
1C
0B
13
02
1'
0&
1A
11
1%
#360000
b101 "
b100 "
b1100 "
b1110 "
b111 !
b101 !
1;
0:
09
1<
17
15
1(
1=
16
1B
0A
1?
12
01
1/
1&
0%
1#
1A
11
1%
#380000
b1010 "
b1011 "
b100 !
0;
19
07
0(
0B
0A
1@
02
01
10
0&
0%
1$
#400000
b11 "
b111 "
b101 !
1;
17
05
1(
06
0C
1B
1A
0@
0?
1>
03
12
11
00
0/
0'
1&
1%
0$
0#
1@
10
1$
1?
1/
1#
#420000
b1 !
b11 !
b110 "
b1110 "
b1010 "
b10 !
09
07
15
0;
1:
08
0(
0=
16
0B
0>
02
0&
0A
01
0%
#440000
b1000 "
b110 !
b100 !
b0 "
b100 "
b101 !
1;
0:
18
0<
17
05
1(
06
1C
0?
13
0/
1'
0#
0@
00
0$
#460000
b1101 !
b1001 !
b1011 !
1:
08
14
0(
1>
16
1B
1A
1@
0>
12
11
10
1&
1%
1$
1?
0@
1/
00
1#
0$
0?
0/
0#
#480000
b101 "
b1101 "
b11 !
b111 !
b101 !
0:
18
04
19
15
1(
0B
0A
1@
1?
0C
02
01
10
1/
03
0&
0%
1$
1#
0'
#500000
b100 !
b110 !
0;
1:
0(
1C
13
1'
#520000
b1100 "
b100 "
b10 !
08
09
05
1(
06
1A
0@
0C
1B
0?
1>
11
00
03
12
0/
1%
0$
0'
1&
0#
1@
10
1$
1?
1/
1#
#540000
b1010 !
b1011 !
b1001 !
b1101 !
1;
0:
18
14
0(
0>
16
1C
0B
0A
0@
13
02
01
00
1'
0&
0%
0$
0?
1@
0/
10
0#
1$
#560000
b101 !
b100 !
b110 !
b10 !
0;
1:
08
04
1(
06
0C
1B
1A
0@
1>
03
12
11
00
0'
1&
1%
0$
1@
10
1$
1?
1/
1#
#580000
b110 "
b1110 "
b1010 !
b1000 !
0:
14
1<
15
0(
1=
0A
01
0%
#600000
b1100 !
b1100 "
b100 "
b100 !
b110 !
0<
05
1:
18
04
1(
0=
1A
0>
11
1%
0A
0@
01
00
0%
0$
0?
0/
0#
#620000
b0 "
b100 !
0:
07
0(
0B
1A
02
11
0&
1%
#640000
b1 "
b101 !
b1 !
b1001 "
b1101 "
b11 !
1;
1:
08
19
17
15
1(
1>
16
1B
1@
1?
0>
12
10
1/
1&
1$
1#
0@
00
0$
#660000
b10 !
b101 "
b1 "
07
05
0;
0(
06
0A
1@
0?
1C
0B
01
10
0/
13
02
0%
1$
0#
1'
0&
0@
00
0$
#680000
b11 "
b110 !
b111 "
18
1<
17
1(
1=
1B
1>
12
1&
1A
1@
11
10
1%
1$
1?
1/
1#
#700000
b101 "
0<
0(
0=
0B
0>
02
0&
0A
0@
01
00
0%
0$
0?
0/
0#
#720000
b100 "
b100 !
b101 !
b110 "
1;
0:
09
1<
1(
1=
1B
1>
12
1&
1A
1@
11
10
1%
1$
1?
1/
1#
#740000
b1101 !
b111 "
b1111 !
b1110 !
19
0;
1:
14
0(
16
0>
0@
00
0$
0?
0/
0#
#760000
b1111 "
b1110 "
b1100 !
0:
09
15
1(
06
0C
1>
03
0'
1@
10
1$
1?
1/
1#
#780000
b1000 !
b1010 "
b1000 "
b0 !
b0 "
b10 !
0<
07
05
1:
08
04
0(
0=
0>
0A
0@
01
00
0%
0$
0?
0/
0#
#800000
b110 !
b100 "
b110 "
b1110 "
1<
17
15
18
1(
16
0B
1?
02
1/
0&
1#
1@
10
1$
#820000
b1111 "
b1110 !
b1100 !
b1011 "
0:
14
19
07
0(
1=
06
0?
1C
1A
0/
13
11
0#
1'
1%
0A
0@
01
00
0%
0$
#840000
b1000 !
b1010 "
b0 !
b10 !
b1110 "
09
17
1:
08
04
1(
0=
1>
16
0C
1@
1?
0>
03
10
1/
0'
1$
1#
1A
0@
11
00
1%
0$
#860000
b110 !
b1010 "
07
18
0(
1@
10
1$
#880000
b1011 "
b100 !
b0 !
0:
08
19
1(
1=
0A
1C
01
13
0%
1'
1A
0@
11
00
1%
0$
#900000
b1 !
b1001 "
b1 "
b1001 !
b1011 !
b1111 !
0<
05
1;
1:
18
14
0(
0=
1B
0?
0C
0A
1@
12
0/
03
01
10
1&
0#
0'
0%
1$
1A
11
1%
#920000
b0 "
b111 !
b11 !
08
04
09
1(
06
0A
1C
01
13
0%
1'
0@
00
0$
#940000
b1 !
b1001 !
b1101 !
0:
18
14
0(
16
0B
1A
02
11
0&
1%
1@
10
1$
#960000
b1100 !
0;
1(
0C
03
0'
#970000
b100 !
b0 !
08
04
0(
06
0A
01
0%
0@
00
0$
