Lab2/Lab2_2/simulation/qsim/AC4.msim.vcd
$comment
	File created using the following command:
		vcd file AC4.msim.vcd -direction
$end
$date
	Tue Jan 07 10:41:27 2020
$end
$version
	ModelSim Version 10.1d
$end
$timescale
	1ps
$end
$scope module AC4_vlg_vec_tst $end
$var reg 1 ! clk $end
$var reg 1 " load $end
$var reg 1 # rst_n $end
$var reg 4 $ x_i [3:0] $end
$var wire 1 % done $end
$var wire 1 & overflow $end
$var wire 1 ' sum_o [3] $end
$var wire 1 ( sum_o [2] $end
$var wire 1 ) sum_o [1] $end
$var wire 1 * sum_o [0] $end
$var wire 1 + sampler $end
$scope module i1 $end
$var wire 1 , gnd $end
$var wire 1 - vcc $end
$var wire 1 . unknown $end
$var tri1 1 / devclrn $end
$var tri1 1 0 devpor $end
$var tri1 1 1 devoe $end
$var wire 1 2 done~output_o $end
$var wire 1 3 overflow~output_o $end
$var wire 1 4 sum_o[3]~output_o $end
$var wire 1 5 sum_o[2]~output_o $end
$var wire 1 6 sum_o[1]~output_o $end
$var wire 1 7 sum_o[0]~output_o $end
$var wire 1 8 clk~input_o $end
$var wire 1 9 clk~inputclkctrl_outclk $end
$var wire 1 : load~input_o $end
$var wire 1 ; inst|inst4|inst~0_combout $end
$var wire 1 < rst_n~input_o $end
$var wire 1 = rst_n~inputclkctrl_outclk $end
$var wire 1 > inst|inst2|inst~q $end
$var wire 1 ? inst|inst1|inst~combout $end
$var wire 1 @ inst|inst|inst~q $end
$var wire 1 A inst|inst5|inst~0_combout $end
$var wire 1 B inst|inst3|inst~q $end
$var wire 1 C inst|inst6|inst~combout $end
$var wire 1 D x_i[1]~input_o $end
$var wire 1 E x_i[0]~input_o $end
$var wire 1 F main2|j|inst3~0_combout $end
$var wire 1 G main3|n|inst~q $end
$var wire 1 H main1|h|b|inst~0_combout $end
$var wire 1 I main2|k|inst3~0_combout $end
$var wire 1 J main3|o|inst~q $end
$var wire 1 K main1|h|e|inst~0_combout $end
$var wire 1 L x_i[2]~input_o $end
$var wire 1 M main2|l|inst3~0_combout $end
$var wire 1 N main3|p|inst~q $end
$var wire 1 O main1|f|e|inst~0_combout $end
$var wire 1 P x_i[3]~input_o $end
$var wire 1 Q main2|m|inst3~0_combout $end
$var wire 1 R main2|m|inst3~1_combout $end
$var wire 1 S main3|q2|inst~q $end
$var wire 1 T main1|f|e|inst~1_combout $end
$upscope $end
$upscope $end
$enddefinitions $end
#0
$dumpvars
0!
0"
0#
b0 $
0%
0&
0*
0)
0(
0'
x+
0,
1-
x.
1/
10
11
02
03
04
05
06
07
08
09
0:
0;
0<
0=
0>
0?
0@
1A
0B
0C
0D
0E
0F
0G
0H
0I
0J
0K
0L
0M
0N
0O
0P
1Q
0R
0S
0T
$end
#20000
1!
18
19
0+
#40000
0!
08
09
1+
#60000
1!
18
19
0+
#80000
1#
1"
b1 $
0!
1<
1:
1E
08
1=
09
1+
1F
0A
#100000
1!
18
19
0+
1G
1H
17
1*
#120000
b11 $
0"
b10 $
0!
0E
1D
0:
08
09
1+
1I
1A
#140000
1!
18
19
0+
1B
1J
0A
1;
1K
0H
16
1)
1M
0I
#160000
b11 $
0!
1E
08
09
1+
1H
0F
1I
#180000
1!
18
19
0+
0B
1>
1N
0G
1A
0Q
1O
0M
0H
1F
15
07
1(
0*
1R
0I
#200000
b111 $
b101 $
b100 $
0!
0E
0D
1L
08
09
1+
0K
1H
0F
1M
0M
1I
#220000
1!
18
19
0+
1B
1S
0N
0A
1?
0;
0R
1Q
0O
1M
14
05
1'
0(
1C
1T
1R
12
13
1%
1&
0T
03
0&
#240000
b0 $
0!
0L
08
09
1+
0M
#260000
1!
18
19
0+
0B
1@
0>
0C
02
0%
#280000
0!
08
09
1+
#300000
1!
18
19
0+
#320000
0!
08
09
1+
#340000
1!
18
19
0+
#360000
0!
08
09
1+
#380000
1!
18
19
0+
#400000
1"
b10 $
b11 $
b111 $
0!
1:
1E
1D
1L
08
09
1+
0R
1M
1F
0?
1K
0H
0Q
1O
1T
13
1&
#420000
1!
18
19
0+
0@
0S
1N
1G
1H
04
15
17
0'
1(
1*
0T
03
0&
#440000
0"
b101 $
b1 $
0!
0:
0D
0L
08
09
1+
1R
0M
0F
1A
0H
0I
#460000
1!
18
19
0+
1B
1S
0N
0J
0G
0A
1;
0R
1Q
0O
1M
0K
1F
14
05
06
07
1'
0(
0)
0*
1T
1R
0M
13
1&
0T
03
0&
#480000
b101 $
0!
1L
08
09
1+
1M
#500000
1!
18
19
0+
0B
1>
1N
1G
1A
0Q
1O
0M
1H
0F
15
17
1(
1*
0R
1I
1T
13
1&
#520000
b100 $
b110 $
b10 $
0!
0E
1D
0L
08
09
1+
1F
1Q
0O
1M
1R
0T
03
0&
#540000
1!
18
19
0+
1B
1J
0A
1?
0;
1K
0H
16
1)
1C
0Q
1O
0M
0I
12
1%
0R
1T
13
1&
#560000
b0 $
0!
0D
08
09
1+
0K
1H
1Q
0O
1M
1I
1R
0T
03
0&
#580000
1!
18
19
0+
0B
1@
0>
0C
02
0%
#600000
0!
08
09
1+
#620000
1!
18
19
0+
#640000
1"
b1 $
b11 $
0!
1:
1E
1D
08
09
1+
0R
0M
0?
1K
0Q
1O
1T
13
1&
#660000
1!
18
19
0+
0@
0S
0N
1Q
0O
04
05
0'
0(
0T
03
0&
#680000
b1011 $
0"
b1001 $
0!
0D
1P
0:
08
09
1+
0H
1R
1M
0F
1A
0I
#700000
1!
18
19
0+
1B
1S
1N
0J
0G
0A
1;
0R
0Q
1O
0M
0K
1F
14
15
06
07
1'
1(
0)
0*
1T
1R
1Q
0O
1M
13
1&
0R
#720000
b1000 $
b0 $
0!
0E
0P
08
09
1+
0F
1R
0T
03
0&
#740000
1!
18
19
0+
0B
1>
1A
#760000
b1 $
0!
1E
08
09
1+
1F
#780000
1!
18
19
0+
1B
1G
0A
1?
0;
1H
0F
17
1*
1C
1I
12
1%
#800000
b0 $
0!
0E
08
09
1+
0H
1F
0I
#820000
1!
18
19
0+
0B
1@
0>
0C
02
0%
#840000
0!
08
09
1+
#860000
1!
18
19
0+
#880000
0!
08
09
1+
#900000
1!
18
19
0+
#920000
0!
08
09
1+
#940000
1!
18
19
0+
#960000
0!
08
09
1+
#980000
1!
18
19
0+
