Lab1/Lab1_3/simulation/qsim/MU4.msim.vcd
$comment
	File created using the following command:
		vcd file MU4.msim.vcd -direction
$end
$date
	Wed Dec 11 16:37:38 2019
$end
$version
	ModelSim Version 10.1d
$end
$timescale
	1ps
$end
$scope module MU4_vlg_vec_tst $end
$var reg 4 ! A [3:0] $end
$var reg 4 " B [3:0] $end
$var wire 1 # M [7] $end
$var wire 1 $ M [6] $end
$var wire 1 % M [5] $end
$var wire 1 & M [4] $end
$var wire 1 ' M [3] $end
$var wire 1 ( M [2] $end
$var wire 1 ) M [1] $end
$var wire 1 * M [0] $end
$var wire 1 + sampler $end
$scope module i1 $end
$var wire 1 , gnd $end
$var wire 1 - vcc $end
$var wire 1 . unknown $end
$var tri1 1 / devclrn $end
$var tri1 1 0 devpor $end
$var tri1 1 1 devoe $end
$var wire 1 2 M[7]~output_o $end
$var wire 1 3 M[6]~output_o $end
$var wire 1 4 M[5]~output_o $end
$var wire 1 5 M[4]~output_o $end
$var wire 1 6 M[3]~output_o $end
$var wire 1 7 M[2]~output_o $end
$var wire 1 8 M[1]~output_o $end
$var wire 1 9 M[0]~output_o $end
$var wire 1 : B[3]~input_o $end
$var wire 1 ; A[1]~input_o $end
$var wire 1 < A[0]~input_o $end
$var wire 1 = B[2]~input_o $end
$var wire 1 > A[2]~input_o $end
$var wire 1 ? B[0]~input_o $end
$var wire 1 @ n|l|inst~combout $end
$var wire 1 A B[1]~input_o $end
$var wire 1 B r|i|c|inst~combout $end
$var wire 1 C r|h|b|inst~combout $end
$var wire 1 D s|i|c|inst~combout $end
$var wire 1 E r|h|e|inst~0_combout $end
$var wire 1 F A[3]~input_o $end
$var wire 1 G n|m|inst~combout $end
$var wire 1 H r|g|b|inst~combout $end
$var wire 1 I s|h|b|inst~combout $end
$var wire 1 J t|i|c|inst~combout $end
$var wire 1 K r|g|e|inst~0_combout $end
$var wire 1 L r|f|b|inst~combout $end
$var wire 1 M s|h|e|inst~0_combout $end
$var wire 1 N s|g|b|inst~combout $end
$var wire 1 O t|h|e|inst~0_combout $end
$var wire 1 P s|g|e|inst~0_combout $end
$var wire 1 Q r|f|d|inst~combout $end
$var wire 1 R s|f|b|inst~combout $end
$var wire 1 S t|g|e|inst~0_combout $end
$var wire 1 T s|f|e|inst~0_combout $end
$var wire 1 U t|f|e|inst~0_combout $end
$var wire 1 V t|f|b|inst~0_combout $end
$var wire 1 W t|g|b|inst~combout $end
$var wire 1 X t|h|b|inst~combout $end
$var wire 1 Y t|i|a|inst~combout $end
$var wire 1 Z s|i|a|inst~combout $end
$var wire 1 [ r|i|a|inst~combout $end
$var wire 1 \ n|j|inst~combout $end
$upscope $end
$upscope $end
$enddefinitions $end
#0
$dumpvars
b101 !
b1010 "
0*
1)
0(
0'
1&
1%
0$
0#
x+
0,
1-
x.
1/
10
11
02
03
14
15
06
07
18
09
1:
0;
1<
0=
1>
0?
0@
1A
0B
0C
0D
0E
0F
0G
1H
1I
1J
0K
0L
0M
0N
0O
0P
0Q
0R
0S
0T
0U
0V
1W
1X
0Y
0Z
1[
0\
$end
#20000
b1101 !
b1001 !
b1011 !
b1010 !
b1000 "
0A
0<
1;
0>
1F
0+
0H
0J
1O
0[
1Y
0X
0W
1V
0I
0O
08
16
05
04
13
0)
1'
0&
0%
1$
1X
1W
15
14
1&
1%
0Y
0W
06
04
0'
0%
#40000
b1011 !
b1010 "
1A
1<
1+
1L
1C
1[
1Y
1N
18
16
1)
1'
1Z
1O
17
1(
0X
05
0&
1W
14
1%
#60000
b1110 "
b1111 "
b1111 !
b1101 "
1>
1?
0A
1=
0+
1S
1P
0N
1@
1G
0L
0C
1R
1I
1D
0W
1\
0Z
1T
0R
0O
1C
1H
0P
1N
0D
1J
1M
0I
04
19
07
0%
1*
0(
0V
1U
1X
1Z
1W
0Y
0S
1D
0T
1R
1O
1P
0N
0J
03
12
15
17
14
06
0$
1#
1&
1(
1%
0'
1V
0Z
1Y
1I
1S
1T
0R
0O
13
07
16
1$
0(
1'
0U
1J
0S
02
0#
0Y
1U
1O
06
12
0'
1#
0X
0V
1S
05
03
0&
0$
0W
04
0%
1V
13
1$
#80000
b1001 "
b1000 "
b1011 !
b1010 "
0>
0?
1A
0=
1+
0S
0P
1N
0@
0G
1L
1E
0C
0T
1R
0I
0D
1W
0\
1Z
0R
0E
1C
1P
0N
1S
0J
0M
1I
14
09
17
1%
0*
1(
0U
1X
0Z
0W
1Y
0S
0H
1R
0O
0P
1N
1J
02
15
07
04
16
0#
1&
0(
0%
1'
1W
1Z
0V
1U
0Y
0I
0R
1O
14
17
03
12
06
1%
1(
0$
1#
0'
1V
0U
0J
13
02
1$
0#
1Y
16
1'
0X
05
0&
#100000
b1001 !
b1110 "
b1100 "
0A
1=
0;
0+
0L
0C
1R
1D
0O
0[
0Z
1X
0N
0D
1I
08
07
15
0)
0(
1&
1Z
0I
1J
17
1(
0X
0Y
0J
05
06
0&
0'
1Y
1X
16
15
1'
1&
0X
05
0&
#120000
b1101 !
b1110 "
1A
1>
1+
1L
1H
1S
1N
1[
0W
1P
0N
1I
18
04
1)
0%
0V
1U
1X
1T
0R
1J
03
12
15
0$
1#
1&
0X
0Y
0S
05
06
0&
0'
1V
1W
1X
13
14
15
1$
1%
1&
0V
03
0$
#140000
b110 "
b1100 !
b1000 !
0<
0>
0:
0+
0J
0P
1N
0H
0[
0Z
1Y
0W
1V
0U
0T
1R
0I
08
07
16
04
13
02
0)
0(
1'
0%
1$
0#
0V
1W
0Y
03
14
06
0$
1%
0'
#160000
b0 !
b10 "
b1 !
b101 !
0=
1<
1>
0F
1+
0R
1H
0L
1[
1I
0N
18
1)
0W
04
0%
1Y
0X
16
05
1'
0&
#180000
b11 "
b111 "
1?
1=
0+
1@
1N
1\
1Z
1C
19
17
1*
1(
1X
1D
15
1&
0Z
1M
0I
07
0(
1P
0N
0Y
1R
06
0'
0X
05
0&
1W
14
1%
#200000
b1111 "
b1 !
b1110 "
0>
0?
1:
1+
0P
1N
0H
0@
0\
1Y
0R
0M
1I
0C
09
16
0*
1'
1X
0N
1J
0D
15
1&
0W
0Y
1Z
0I
04
06
17
0%
0'
1(
0J
1Y
16
1'
0X
05
0&
#220000
b11 !
b1100 "
b1011 !
b1000 "
b0 "
b1 "
1?
0A
0=
0:
1;
1F
0+
1G
1\
0Z
0Y
1H
19
07
06
1*
0(
0'
1I
1Y
16
1'
#240000
b1010 !
b0 "
0?
0<
1+
0G
0\
0[
0H
09
08
0*
0)
0I
0Y
06
0'
#260000
b1110 !
b1100 !
b10 "
b110 "
b1110 "
b1101 !
1A
1=
1:
1<
0;
1>
0+
1L
1H
1R
1N
1[
1Z
1Y
1W
1V
1P
0N
1I
1S
18
17
16
14
13
1)
1(
1'
1%
1$
0W
1X
1T
0R
1J
04
15
0%
1&
0X
0Y
0V
1U
0S
05
06
03
12
0&
0'
0$
1#
1V
1W
1X
13
14
15
1$
1%
1&
0V
03
0$
#280000
b1111 "
b1001 !
b1011 !
b1011 "
b11 "
1;
0>
1?
0=
0:
1+
1C
1B
0P
1N
0H
1G
0T
1R
0J
0[
0W
1\
0Z
1Y
1V
0U
1E
0C
0R
0I
1H
08
04
19
07
16
13
02
0)
0%
1*
0(
1'
1$
0#
1Z
0V
1W
1K
0H
1I
17
03
14
1(
0$
1%
0Z
0W
0Y
1Q
0L
0I
07
04
06
0(
0%
0'
1Y
1R
0N
16
1'
0Y
06
0'
1W
0X
14
05
1%
0&
#300000
b11 !
b1 "
b0 "
b111 !
b101 !
b100 "
0?
0A
1=
0;
1>
0F
0+
0G
0B
0Q
1L
0E
1C
1N
0\
1Z
0K
0C
0R
1P
0N
1D
09
17
0*
1(
0Z
1X
0L
0D
1R
1I
07
15
0(
1&
1Z
0W
0X
0P
1N
0I
17
04
05
1(
0%
0&
1W
1Y
0R
14
16
1%
1'
1X
0Y
15
06
1&
0'
0W
04
0%
#320000
b100 !
b101 "
1?
0<
1+
1@
0Z
1C
07
0(
1Z
17
1(
#340000
b1101 "
b1100 !
b1110 !
1;
1F
1:
0+
1O
1I
1R
1G
1[
0X
1V
1W
1S
1H
18
05
13
14
1)
0&
1$
1%
1Y
1M
0I
16
1'
0V
1U
1P
0N
03
12
0$
1#
0Y
1T
0R
0O
06
0'
1X
0S
15
1&
1V
13
1$
0V
03
0$
#360000
b1111 "
b1011 "
b110 !
b100 !
0;
0F
1A
0=
1+
0M
1I
0T
1R
0G
1K
0H
0P
1N
0[
0X
1V
0U
0N
1S
0K
1H
1L
0I
0R
08
05
13
02
0)
0&
1$
0#
1Y
0V
0W
1X
0L
1I
1N
0S
16
03
04
15
1'
0$
0%
1&
0X
1V
0Y
1W
0N
05
13
06
14
0&
1$
0'
1%
1Y
1X
0V
16
15
03
1'
1&
0$
0X
05
0&
#380000
b1111 "
1=
0+
1N
1X
15
1&
#400000
b0 !
b1 !
b1110 "
b1100 "
b1001 !
b1011 !
0?
0A
1<
1;
0>
1F
1+
0@
0H
1J
1D
1O
1M
0I
0N
1R
0Z
0Y
0X
0W
1V
0C
1S
1N
0J
07
06
05
04
13
0(
0'
0&
0%
1$
1Y
0D
16
1'
1Z
0V
1U
0M
1I
17
03
12
1(
0$
1#
0N
1J
0Y
06
0'
#420000
b100 "
b0 "
b1111 !
b1110 !
b1 "
0<
1>
1?
0=
0:
0+
0J
1@
1G
0R
0I
0O
1[
0Z
1Y
1X
1V
0U
1C
1H
0S
18
07
16
15
13
02
1)
0(
1'
1&
1$
0#
0X
0Y
1I
05
06
0&
0'
1Z
0V
17
03
1(
0$
1Y
16
1'
#440000
b11 "
b110 !
b111 "
b10 !
b11 !
1<
0>
0F
1A
1=
1+
1D
1B
0@
0G
1E
0C
1M
0I
1\
0[
0Z
1I
0D
1N
19
08
07
1*
0)
0(
1Z
0Y
0I
17
06
1(
0'
1Y
1X
16
15
1'
1&
0Y
06
0'
#460000
b1 !
b110 "
b1001 !
b1101 !
b1100 !
0?
0<
0;
1>
1F
0+
0B
0M
1I
0E
1C
1P
0N
1K
0H
1R
1L
0\
0Z
0C
0K
1H
1T
0R
1Q
0L
0I
09
07
0*
0(
1Y
1Z
0X
1W
0Q
1L
1I
1R
0P
1N
16
17
05
14
1'
1(
0&
1%
0Z
1V
0W
0Y
0T
1P
0N
07
13
04
06
0(
1$
0%
0'
1Y
1W
1X
1T
0R
16
14
15
1'
1%
1&
0V
0X
03
05
0$
0&
1V
0W
13
04
1$
0%
#480000
b100 "
b0 "
b1 "
b1000 !
b1001 !
1<
0>
1?
0A
0=
1+
0P
1N
0H
1G
0L
0T
1R
1\
0R
0I
1H
0N
19
1*
1X
0V
1W
1I
15
03
14
1&
0$
1%
0W
0Y
0X
04
06
05
0%
0'
0&
1Y
16
1'
#500000
b1 !
0F
0+
0G
0H
0I
0Y
06
0'
#520000
b11 "
b111 "
b110 "
b101 !
b100 !
b1100 !
0<
1>
1F
0?
1A
1=
1+
1N
1H
1R
1L
0\
1I
1P
0N
09
0*
1X
1W
1T
0R
15
14
1&
1%
1Y
0X
16
05
1'
0&
1V
0W
13
04
1$
0%
#540000
b100 "
b0 "
b1101 !
1<
0A
0=
0+
0L
0H
0T
1R
0P
1N
0N
0I
0R
0V
1W
1X
03
14
15
0$
1%
1&
0X
0Y
0W
05
06
04
0&
0'
0%
#560000
b1111 !
b111 !
b100 "
1=
1;
0F
1+
1N
1I
1Z
17
1(
1X
1Y
15
16
1&
1'
#580000
b1100 "
b1110 "
b110 !
b100 !
b1010 "
0<
0;
1A
0=
1:
0+
0I
1H
0N
0Z
1W
1I
07
14
0(
1%
0Y
0X
06
05
0'
0&
1Y
16
1'
#600000
b1011 "
b1100 !
b11 "
b1110 !
b111 "
1;
1F
1?
1=
0:
1+
1M
0I
1C
1R
1L
1G
1@
1N
1[
0W
1P
1K
0H
1E
0C
18
04
1)
0%
0Y
1Z
1W
1X
1T
0R
1Q
0L
0M
1I
1H
06
17
14
15
0'
1(
1%
1&
0Z
1R
0P
1M
0I
07
0(
1V
0W
1Y
0R
1P
0N
13
04
16
1$
0%
1'
1W
0Y
1R
14
06
1%
0'
0W
0X
04
05
0%
0&
1W
14
1%
#620000
b110 "
b110 !
0F
0?
0+
0R
0Q
1L
0G
0@
0[
0T
1R
1N
0H
0E
1C
08
0)
0W
0M
1I
0K
1H
04
0%
0V
1W
1X
1Z
0N
0L
1M
0I
03
14
15
17
0$
1%
1&
1(
1Y
16
1'
0X
0Y
05
06
0&
0'
#640000
b1110 "
b100 !
b1010 "
0;
0=
1:
1+
0M
1I
0C
0P
1N
1S
0W
0N
0R
04
0%
1Y
0Z
1X
1V
0S
16
07
15
13
1'
0(
1&
1$
0X
1W
05
14
0&
1%
0V
03
0$
#660000
b0 !
b1000 "
b1000 !
b0 "
b1010 !
b100 "
0A
1=
0:
1;
0>
1F
0+
0H
1R
1M
0I
0W
0M
1I
1N
04
0%
1W
0Y
0N
14
06
1%
0'
1Y
1X
16
15
1'
1&
0X
05
0&
#680000
b1011 !
b101 "
b111 "
b11 !
b1111 "
b1 !
b1011 "
1?
1A
0=
1:
1<
0;
0F
1+
0R
0I
1J
1\
1[
0Y
0J
19
18
06
1*
1)
0'
0W
1Y
1X
04
16
15
0%
1'
1&
0X
05
0&
#700000
b101 !
b1001 "
0A
1>
0+
1@
0[
1W
1C
08
14
0)
1%
1Z
17
1(
#720000
b100 !
b1000 "
b1100 !
b1110 !
b1100 "
b1010 !
0?
1=
0<
1;
0>
1F
1+
0@
1R
1I
0\
0Y
1X
0W
1V
0C
09
06
15
04
13
0*
0'
1&
0%
1$
1W
1Y
14
16
1%
1'
0Z
07
0(
#740000
b100 "
b10 !
b0 "
0F
0=
0:
0+
0R
0I
0V
0X
03
05
0$
0&
0W
0Y
04
06
0%
0'
#760000
b10 "
b11 "
b110 !
b1011 "
b1110 !
b1111 "
1>
1F
1?
1A
1=
1:
1+
1N
1H
1@
1R
1L
1G
1C
1I
1W
1V
1[
1X
1O
1M
0I
1E
0C
1S
1P
0N
1K
0H
14
13
18
15
1%
1$
1)
1&
0X
0W
1Z
1Y
1N
1H
1T
0R
0O
1Q
0L
0M
1I
05
04
17
16
0&
0%
1(
1'
1W
0Y
0Z
0V
1U
1X
1O
1M
0I
0S
1R
0P
14
06
07
03
12
15
1%
0'
0(
0$
1#
1&
0X
1V
1Y
1S
1P
0N
0R
05
13
16
0&
1$
1'
0Y
0V
1R
0O
06
03
0'
0$
1V
1X
0W
13
15
04
1$
1&
0%
#780000
b1101 "
b1100 "
b100 "
b110 !
0F
0?
0A
0:
0+
0R
0Q
1L
0G
0@
0H
0E
1C
0S
0V
0[
0X
1W
0T
1R
1N
0K
0C
0M
1I
03
08
05
14
0$
0)
0&
1%
0W
1Z
1V
0U
0L
0N
04
17
13
02
0%
1(
1$
0#
0V
1W
1X
0Z
1Y
0P
1N
03
14
15
07
16
0$
1%
1&
0(
1'
0X
0R
05
0&
1X
15
1&
0W
04
0%
#800000
b111 !
b101 !
b110 "
b111 "
b1111 "
b1101 !
1?
1A
1:
1<
0;
1F
1+
1G
1@
1L
1H
1J
0I
1R
1\
1[
0Y
1W
1V
1Z
1K
0H
1C
1P
0N
1I
1O
0J
1S
19
18
06
14
13
17
1*
1)
0'
1%
1$
1(
0X
1Y
0W
1Q
0L
0I
1D
1T
0R
0O
1J
05
16
04
0&
1'
0%
0Z
0Y
1W
0V
1U
1R
0P
1N
0J
1I
0S
07
06
14
03
12
0(
0'
1%
0$
1#
1Y
1V
1X
1S
0R
1J
16
13
15
1'
1$
1&
0W
0Y
0V
0S
1O
04
06
03
0%
0'
0$
1V
1W
0X
1S
13
14
05
1$
1%
0&
0V
0W
03
04
0$
0%
1V
13
1$
#820000
b1011 "
b1100 !
b1110 !
b1010 "
b10 "
b110 !
0<
1;
0F
0?
0=
0:
0+
0J
0D
1E
0C
0T
1R
0Q
1L
0G
0@
0N
0S
0\
0[
1Z
1Y
0V
1W
0O
0I
1S
0R
1N
0E
1C
09
08
17
16
03
14
0*
0)
1(
1'
0$
1%
0Z
0U
0W
0S
0K
1H
07
02
04
0(
0#
0%
0Y
1V
1X
1Z
0L
1I
06
13
15
17
0'
1$
1&
1(
0V
0N
03
0$
1Y
16
1'
0X
05
0&
#840000
b100 !
b11 "
1?
0;
1+
1@
0C
1C
0Z
07
0(
1Z
17
1(
#860000
b0 !
b111 "
b1111 "
b1000 !
b1010 !
1=
1:
1;
0>
1F
0+
1R
1M
0I
1E
0C
0H
0@
1L
1G
1X
1V
1[
1P
1K
0M
1I
0E
1C
15
13
18
1&
1$
1)
1W
0Y
0Z
1T
0R
1Q
0L
0P
1N
0K
1H
14
06
07
1%
0'
0(
1Y
1Z
0N
1O
0Q
1L
1M
0I
16
17
1'
1(
0V
1U
0W
0X
0O
0T
1R
1P
03
12
04
05
0$
1#
0%
0&
1X
1W
0Y
1T
0R
15
14
06
1&
1%
0'
1V
0U
13
02
1$
0#
0V
1U
0W
03
12
04
0$
1#
0%
#880000
b1101 "
b1011 !
b1100 "
b1000 "
b0 "
b11 !
1<
0F
0?
0A
0=
0:
1+
0T
1R
0L
0G
0C
0M
1I
0[
1V
0U
0X
0P
0H
08
13
02
05
0)
1$
0#
0&
0V
1W
0Z
1Y
0R
0I
03
14
07
16
0$
1%
0(
1'
0W
0Y
04
06
0%
0'
#900000
b1 !
b100 "
b1100 "
1=
1:
0;
0+
1Z
1Y
17
16
1(
1'
#920000
b101 !
b1101 !
b1111 !
b100 "
0:
1;
1>
1F
1+
1I
1N
1R
0Y
06
0'
1Y
1X
1W
16
15
14
1'
1&
1%
#940000
b1011 !
0>
0+
0N
0X
05
0&
#960000
b110 "
b111 "
b11 !
b1 !
b1111 "
0;
0F
1?
1A
1:
1+
0I
0R
1J
1[
1\
0Y
0J
18
19
06
1)
1*
0'
1Y
0W
1X
16
04
15
1'
0%
1&
0X
05
0&
#980000
b0 !
b1101 "
b1100 "
b1000 !
0?
0A
0<
1F
0+
1R
0\
0[
0Z
0Y
1V
09
08
07
06
13
0*
0)
0(
0'
1$
1W
14
1%
#990000
b0 !
0F
1+
0R
0V
03
0$
0W
04
0%
